…
iris %>%
  dplyr::mutate(Species = as.character(Species)) %>%
  pipe_cat("Total average Sepal Length: ",mean(Sepal.Length),"\n") %>%
  dplyr::group_by(Species) %>%
  pipe_cat(Species," average Sepal Length: ",mean(Sepal.Length),"\n")
#> Total average Sepal Length:  5.843333 
#> Warning: The `keep` argument of `group_split()` is deprecated as of dplyr 1.0.0.
#> Please use the `.keep` argument instead.
#> This warning is displayed once every 8 hours.
#> Call `lifecycle::last_warnings()` to see where this warning was generated.
#> setosa  average Sepal Length:  5.006 
#> versicolor  average Sepal Length:  5.936 
#> virginica  average Sepal Length:  6.588 
#> # A tibble: 150 x 5
#> # Groups:   Species [3]
#>    Sepal.Length Sepal.Width Petal.Length Petal.Width Species
#>           <dbl>       <dbl>        <dbl>       <dbl> <chr>  
#>  1          5.1         3.5          1.4         0.2 setosa 
#>  2          4.9         3            1.4         0.2 setosa 
#>  3          4.7         3.2          1.3         0.2 setosa 
#>  4          4.6         3.1          1.5         0.2 setosa 
#>  5          5           3.6          1.4         0.2 setosa 
#>  6          5.4         3.9          1.7         0.4 setosa 
#>  7          4.6         3.4          1.4         0.3 setosa 
#>  8          5           3.4          1.5         0.2 setosa 
#>  9          4.4         2.9          1.4         0.2 setosa 
#> 10          4.9         3.1          1.5         0.1 setosa 
#> # … with 140 more rows
…
